RforGraph&TableinArticles - 01
…
f4h |> pivot_longer(cols = -1,
                    names_to = "method",
                    values_to = "volume",
) |>
    dplyr::mutate(Days = factor(Days, levels = c("-1", "7", "14")),
                  method = factor(
                      method,
                      levels = c("PBS", "SLAMF6+ PD-1+ CD8+ cells",
                                 "SLAMF6- PD-1+ CD8+ cells")
                  )) -> f4h
f4h
#> # A tibble: 45 × 3
#>    Days  method                   volume
#>    <fct> <fct>                     <dbl>
#>  1 -1    PBS                        19.2
#>  2 -1    PBS                        27.0
#>  3 -1    PBS                        23.4
#>  4 -1    PBS                        27.9
#>  5 -1    PBS                        29.7
#>  6 -1    SLAMF6+ PD-1+ CD8+ cells   31.9
#>  7 -1    SLAMF6+ PD-1+ CD8+ cells   34.5
#>  8 -1    SLAMF6+ PD-1+ CD8+ cells   44.4
#>  9 -1    SLAMF6+ PD-1+ CD8+ cells   29.1
#> 10 -1    SLAMF6+ PD-1+ CD8+ cells   41.4
#> # ℹ 35 more rows
…
