R for Graphics and Tables
…
1 ROC

Code
library(tidymodels)
#> ── Attaching packages ────────────────────────────────────── tidymodels 1.2.0 ──
#> ✔ broom        1.0.6     ✔ rsample      1.2.1
#> ✔ dials        1.2.1     ✔ tune         1.2.1
#> ✔ infer        1.0.7     ✔ workflows    1.1.4
#> ✔ modeldata    1.4.0     ✔ workflowsets 1.1.0
#> ✔ parsnip      1.2.1     ✔ yardstick    1.3.1
#> ✔ recipes      1.1.0
data(two_class_example,package = "yardstick")
tibble(two_class_example)
#> # A tibble: 500 × 4
#>    truth   Class1   Class2 predicted
#>    <fct>    <dbl>    <dbl> <fct>    
#>  1 Class2 0.00359 0.996    Class2   
#>  2 Class1 0.679   0.321    Class1   
#>  3 Class2 0.111   0.889    Class2   
#>  4 Class1 0.735   0.265    Class1   
#>  5 Class2 0.0162  0.984    Class2   
#>  6 Class1 0.999   0.000725 Class1   
#>  7 Class1 0.999   0.000799 Class1   
#>  8 Class1 0.812   0.188    Class1   
#>  9 Class2 0.457   0.543    Class2   
#> 10 Class2 0.0976  0.902    Class2   
#> # ℹ 490 more rows
…
1.2 准确性

Code
accuracy(two_class_example, truth, predicted)
#> # A tibble: 1 × 3
#>   .metric  .estimator .estimate
#>   <chr>    <chr>          <dbl>
#> 1 accuracy binary         0.838

1.3 ROC

Code
two_class_curve <- roc_curve(two_class_example, truth, Class1)
two_class_curve
#> # A tibble: 502 × 3
#>    .threshold specificity sensitivity
#>         <dbl>       <dbl>       <dbl>
#>  1 -Inf           0                 1
#>  2    1.79e-7     0                 1
#>  3    4.50e-6     0.00413           1
#>  4    5.81e-6     0.00826           1
#>  5    5.92e-6     0.0124            1
#>  6    1.22e-5     0.0165            1
#>  7    1.40e-5     0.0207            1
#>  8    1.43e-5     0.0248            1
#>  9    2.38e-5     0.0289            1
#> 10    3.30e-5     0.0331            1
#> # ℹ 492 more rows
…
