quarto-input2ecc3bd5d6594a95 – R for Graphics and Tables
…
f4h |> pivot_longer(cols = -1,
                    names_to = "method",
                    values_to = "volume",) |>
    dplyr::mutate(id=factor(rep(1:15,3)),
                  Days = factor(Days, levels = c("-1", "7", "14")),
                  method = factor(
                      method,
                      levels = c("PBS", "SLAMF6+ PD-1+ CD8+ cells",
                                 "SLAMF6- PD-1+ CD8+ cells")
                  )) -> f4h
f4h
#> # A tibble: 45 × 4
#>    Days  method                   volume id   
#>    <fct> <fct>                     <dbl> <fct>
#>  1 -1    PBS                        19.2 1    
#>  2 -1    PBS                        27.0 2    
#>  3 -1    PBS                        23.4 3    
#>  4 -1    PBS                        27.9 4    
#>  5 -1    PBS                        29.7 5    
#>  6 -1    SLAMF6+ PD-1+ CD8+ cells   31.9 6    
#>  7 -1    SLAMF6+ PD-1+ CD8+ cells   34.5 7    
#>  8 -1    SLAMF6+ PD-1+ CD8+ cells   44.4 8    
#>  9 -1    SLAMF6+ PD-1+ CD8+ cells   29.1 9    
#> 10 -1    SLAMF6+ PD-1+ CD8+ cells   41.4 10   
#> # ℹ 35 more rows
…
