quarto-input9b126ac079044081 – R for Graphics and Tables
…
d<-read_excel("data/01source.xlsx",sheet=1,range = "A19:E75") |> 
    rename(
        LR_DPVB=`LR-DPVB`
    )  |> 
    pivot_longer(
        cols = CON:LR_DPVB,
        names_to = "treatment",
        values_to = "status"
    ) |> drop_na() |> 
    mutate(
        treatment=factor(treatment,levels=c('CON','LDRT','DPVB','LR_DPVB'))
    )
# 加载包
d
#> # A tibble: 56 × 3
#>     Days treatment status
#>    <dbl> <fct>      <dbl>
#>  1    11 CON            1
#>  2    13 CON            1
#>  3    14 CON            1
#>  4    14 CON            1
#>  5    15 CON            1
#>  6    17 CON            1
#>  7    17 CON            1
#>  8    17 CON            1
#>  9    20 CON            1
#> 10    20 CON            1
#> # ℹ 46 more rows
…
