R for Graphics and Tables
…
1.2 节点

Code

highschool %>% as_tibble()
#> # A tibble: 506 × 3
#>     from    to  year
#>    <dbl> <dbl> <dbl>
#>  1     1    14  1957
#>  2     1    15  1957
#>  3     1    21  1957
#>  4     1    54  1957
#>  5     1    55  1957
#>  6     2    21  1957
#>  7     2    22  1957
#>  8     3     9  1957
#>  9     3    15  1957
#> 10     4     5  1957
#> # ℹ 496 more rows
…
create_layout(gr2,layout = "partition") 
#> # A tibble: 252 × 12
#>        x     y width height circular leaf  depth name           size shortName
#>    <dbl> <dbl> <dbl>  <dbl> <lgl>    <lgl> <dbl> <chr>         <dbl> <chr>    
#>  1 110     1.5   220      1 FALSE    FALSE     0 flare             0 flare    
#>  2  10     2.5    20      1 FALSE    FALSE     1 flare.animate     0 animate  
#>  3  25.5   2.5    11      1 FALSE    FALSE     1 flare.data        0 data     
#>  4  33     2.5     4      1 FALSE    FALSE     1 flare.display     0 display  
#>  5  35.5   2.5     1      1 FALSE    FALSE     1 flare.flex        0 flex     
#>  6  40     2.5     8      1 FALSE    FALSE     1 flare.physics     0 physics  
#>  7  74     2.5    60      1 FALSE    FALSE     1 flare.query       0 query    
#>  8 109     2.5    10      1 FALSE    FALSE     1 flare.scale       0 scale    
#>  9 126.    2.5    25      1 FALSE    FALSE     1 flare.util        0 util     
#> 10 174.    2.5    71      1 FALSE    FALSE     1 flare.vis         0 vis      
#> # ℹ 242 more rows
#> # ℹ 2 more variables: .ggraph.orig_index <int>, .ggraph.index <int>
…
